0.0000 0.0000 0.0000 0.0000 0.0000 0.0000 0.0000 1.0000
1.0000 0.0043 0.0497 0.0003 -0.0000 0.0001 0.0002 1.0000
2.0000 0.0086 0.0953 -0.0007 -0.0000 0.0001 0.0005 1.0000
3.0000 0.0122 0.1441 -0.0004 0.0001 0.0001 0.0004 1.0000
4.0000 0.0223 0.1961 0.0004 0.0001 0.0001 0.0002 1.0000
5.0000 0.0191 0.2361 0.0032 -0.0000 0.0001 -0.0002 1.0000
6.0000 0.0187 0.2990 -0.0000 0.0000 0.0001 -0.0010 1.0000
7.0000 0.0095 0.3657 -0.0015 0.0001 0.0002 -0.0016 1.0000
8.0000 0.0213 0.4418 0.0025 0.0001 0.0002 -0.0017 1.0000
9.0000 0.0385 0.5402 0.0045 0.0001 0.0004 -0.0015 1.0000
10.0000 0.0636 0.6665 0.0109 0.0003 0.0009 -0.0017 1.0000
11.0000 0.0536 0.7235 0.0168 0.0003 0.0009 -0.0026 1.0000
12.0000 0.0704 0.8120 0.0260 0.0005 0.0015 -0.0035 1.0000
13.0000 0.0923 0.8926 0.0289 0.0006 0.0018 -0.0045 1.0000
14.0000 0.0809 0.9579 0.0209 0.0008 0.0016 -0.0053 1.0000
15.0000 0.0863 1.0215 0.0323 0.0005 0.0012 -0.0065 1.0000
16.0000 0.0794 1.1449 0.0462 0.0002 0.0011 -0.0066 1.0000
17.0000 0.0832 1.2648 0.0576 -0.0001 0.0011 -0.0067 1.0000
18.0000 0.0919 1.3547 0.0573 -0.0000 0.0011 -0.0069 1.0000
19.0000 0.0923 1.4380 0.0573 0.0001 0.0014 -0.0079 1.0000
20.0000 0.0947 1.4994 0.0589 0.0002 0.0016 -0.0085 1.0000
21.0000 0.0919 1.5914 0.0596 0.0004 0.0022 -0.0086 1.0000
22.0000 0.0822 1.6906 0.0629 0.0003 0.0020 -0.0094 1.0000
23.0000 0.0995 1.7898 0.0678 0.0002 0.0020 -0.0093 1.0000
24.0000 0.1274 1.9248 0.0872 -0.0002 0.0029 -0.0088 1.0000
25.0000 0.1069 2.0252 0.0353 -0.0017 0.0113 -0.0090 0.9999
26.0000 0.1191 2.1278 0.0416 -0.0004 0.0126 -0.0103 0.9999
27.0000 0.1626 2.2250 0.0295 0.0004 0.0128 -0.0121 0.9998
28.0000 0.1457 2.3011 0.0272 -0.0005 0.0117 -0.0120 0.9999
29.0000 0.1567 2.4350 0.0434 -0.0005 0.0028 -0.0123 0.9999
30.0000 0.1472 2.5756 0.0347 -0.0016 0.0015 -0.0128 0.9999
31.0000 0.1384 2.7099 0.0513 -0.0019 0.0012 -0.0130 0.9999
32.0000 0.1552 2.8154 0.0724 -0.0027 0.0013 -0.0132 0.9999
33.0000 0.1609 2.9547 0.0799 -0.0028 0.0017 -0.0136 0.9999
34.0000 0.1819 3.1059 0.0785 -0.0032 0.0018 -0.0143 0.9999
35.0000 0.1793 3.2533 0.0717 -0.0046 0.0010 -0.0139 0.9999
36.0000 0.2040 3.3887 0.0489 -0.0071 -0.0015 -0.0134 0.9999
37.0000 0.1829 3.5327 0.0416 -0.0070 -0.0015 -0.0135 0.9999
38.0000 0.1863 3.6197 0.0445 -0.0070 -0.0014 -0.0139 0.9999
39.0000 0.1984 3.7428 0.0480 -0.0065 -0.0009 -0.0140 0.9999
40.0000 0.1972 3.8544 0.0405 -0.0063 -0.0011 -0.0140 0.9999
41.0000 0.1764 3.9878 0.0544 -0.0054 -0.0036 -0.0139 0.9999
42.0000 0.1817 4.1167 0.0711 -0.0038 -0.0045 -0.0140 0.9999
43.0000 0.1986 4.2143 0.0709 -0.0021 -0.0031 -0.0142 0.9999
44.0000 0.2012 4.3561 0.0833 0.0017 -0.0001 -0.0143 0.9999
45.0000 0.2313 4.4925 0.0745 0.0041 0.0013 -0.0146 0.9999
46.0000 0.2401 4.6150 0.0653 0.0048 0.0019 -0.0151 0.9999
47.0000 0.2446 4.7413 0.0779 0.0044 0.0022 -0.0145 0.9999
48.0000 0.2501 4.8800 0.0880 0.0040 0.0024 -0.0148 0.9999
49.0000 0.2404 5.0121 0.0887 0.0053 0.0028 -0.0156 0.9999
50.0000 0.2500 5.1236 0.0824 0.0082 0.0025 -0.0163 0.9998
51.0000 0.2521 5.2397 0.0891 0.0114 0.0025 -0.0159 0.9998
52.0000 0.2629 5.3923 0.1100 0.0135 0.0030 -0.0161 0.9998
53.0000 0.2800 5.5645 0.1032 0.0153 0.0049 -0.0169 0.9997
54.0000 0.2848 5.6830 0.0915 0.0182 0.0059 -0.0179 0.9997
55.0000 0.2656 5.8111 0.0875 0.0211 0.0056 -0.0189 0.9996
56.0000 0.2595 5.9678 0.0859 0.0233 0.0025 -0.0197 0.9995
57.0000 0.2715 6.1378 0.1056 0.0239 0.0006 -0.0203 0.9995
58.0000 0.2742 6.2999 0.1063 0.0243 -0.0005 -0.0219 0.9995
59.0000 0.2907 6.4668 0.1172 0.0247 -0.0012 -0.0250 0.9994
60.0000 0.2996 6.6213 0.1262 0.0249 -0.0017 -0.0281 0.9993
61.0000 0.3327 6.7793 0.1515 0.0246 -0.0013 -0.0307 0.9992
62.0000 0.3615 6.9746 0.1762 0.0238 -0.0002 -0.0340 0.9991
63.0000 0.4217 7.1306 0.1880 0.0236 0.0005 -0.0387 0.9990
64.0000 0.4351 7.2836 0.2119 0.0233 0.0009 -0.0439 0.9988
65.0000 0.4739 7.4487 0.2189 0.0236 0.0012 -0.0485 0.9985
66.0000 0.5013 7.6209 0.2306 0.0235 0.0020 -0.0532 0.9983
67.0000 0.5477 7.8120 0.2560 0.0231 0.0027 -0.0587 0.9980
68.0000 0.5403 7.9548 0.2612 0.0205 0.0057 -0.0644 0.9977
69.0000 0.5996 8.1525 0.2478 0.0195 0.0088 -0.0698 0.9973
70.0000 0.6253 8.3387 0.2643 0.0187 0.0093 -0.0756 0.9969
71.0000 0.6837 8.5304 0.2622 0.0176 0.0087 -0.0820 0.9964
72.0000 0.7120 8.7395 0.2595 0.0163 0.0079 -0.0885 0.9959
73.0000 0.7640 8.9367 0.2608 0.0152 0.0072 -0.0956 0.9953
74.0000 0.8289 9.1409 0.2673 0.0136 0.0066 -0.1034 0.9945
75.0000 0.8721 9.3453 0.2687 0.0131 0.0063 -0.1121 0.9936
76.0000 0.9268 9.5512 0.2887 0.0117 0.0050 -0.1208 0.9926
77.0000 1.0120 9.7615 0.2674 0.0079 0.0024 -0.1309 0.9914
78.0000 1.0975 9.9731 0.2896 0.0037 -0.0000 -0.1409 0.9900
79.0000 1.2006 10.1878 0.3618 0.0022 0.0016 -0.1508 0.9886
80.0000 1.3246 10.4135 0.3599 0.0009 0.0107 -0.1609 0.9869
81.0000 1.4494 10.6328 0.3209 0.0011 0.0172 -0.1734 0.9847
82.0000 1.5661 10.8114 0.3090 0.0025 0.0188 -0.1880 0.9820
83.0000 1.6660 11.0147 0.2842 0.0043 0.0166 -0.2022 0.9792
84.0000 1.7787 11.2283 0.3221 0.0054 0.0114 -0.2170 0.9761
85.0000 1.9208 11.4658 0.3248 0.0059 0.0092 -0.2342 0.9721
86.0000 2.0844 11.6836 0.3415 0.0067 0.0089 -0.2526 0.9675
87.0000 2.2430 11.8609 0.3397 0.0075 0.0092 -0.2708 0.9626
88.0000 2.4359 12.0726 0.3151 0.0091 0.0083 -0.2907 0.9567
89.0000 2.6233 12.2847 0.2814 0.0111 0.0037 -0.3130 0.9497
90.0000 2.8213 12.4649 0.3334 0.0109 0.0009 -0.3344 0.9424
91.0000 3.0661 12.6830 0.3747 0.0096 0.0031 -0.3549 0.9349
92.0000 3.3414 12.8987 0.3839 0.0095 0.0083 -0.3759 0.9266
93.0000 3.6301 13.0709 0.3702 0.0119 0.0130 -0.3978 0.9173
94.0000 3.9393 13.2415 0.3428 0.0143 0.0164 -0.4206 0.9070
95.0000 4.2297 13.4219 0.3408 0.0128 0.0172 -0.4444 0.8956
96.0000 4.5446 13.6056 0.3060 0.0087 0.0148 -0.4674 0.8839
97.0000 4.8808 13.7625 0.3259 0.0068 0.0137 -0.4904 0.8714
98.0000 5.2657 13.9324 0.3469 0.0059 0.0143 -0.5136 0.8579
99.0000 5.6272 14.0476 0.3797 0.0038 0.0164 -0.5360 0.8441
100.0000 6.0178 14.1253 0.3650 0.0041 0.0233 -0.5557 0.8310
101.0000 6.4271 14.2060 0.3448 0.0038 0.0268 -0.5736 0.8187
102.0000 6.8380 14.2816 0.3284 0.0028 0.0289 -0.5895 0.8073
103.0000 7.2638 14.3459 0.3057 0.0013 0.0299 -0.6043 0.7962
104.0000 7.6904 14.4379 0.2975 -0.0003 0.0294 -0.6173 0.7862
105.0000 8.1297 14.4888 0.2734 -0.0004 0.0293 -0.6285 0.7773
106.0000 8.5545 14.5142 0.2354 0.0001 0.0293 -0.6374 0.7700
107.0000 9.0313 14.5651 0.2150 0.0007 0.0298 -0.6459 0.7628
108.0000 9.5143 14.6181 0.2224 0.0005 0.0311 -0.6542 0.7557
109.0000 10.0041 14.6638 0.2038 -0.0010 0.0313 -0.6608 0.7499
110.0000 10.5141 14.7005 0.1768 -0.0021 0.0312 -0.6666 0.7448
111.0000 11.0150 14.7197 0.1511 -0.0021 0.0309 -0.6726 0.7394
112.0000 11.5077 14.7242 0.1318 -0.0022 0.0312 -0.6774 0.7350
113.0000 12.0176 14.7338 0.1177 -0.0020 0.0319 -0.6813 0.7313
114.0000 12.5291 14.7797 0.0990 -0.0025 0.0307 -0.6854 0.7275
115.0000 13.0684 14.8172 0.0752 -0.0032 0.0302 -0.6893 0.7238
116.0000 13.5869 14.8002 0.0725 -0.0032 0.0315 -0.6923 0.7209
117.0000 14.1146 14.7802 0.0596 -0.0031 0.0336 -0.6945 0.7187
118.0000 14.6602 14.7863 0.0385 -0.0020 0.0366 -0.6969 0.7162
119.0000 15.2146 14.8000 -0.0171 -0.0037 0.0366 -0.6993 0.7139
120.0000 15.7425 14.8034 -0.0308 -0.0050 0.0357 -0.7008 0.7125
121.0000 16.2849 14.8105 -0.0591 -0.0049 0.0352 -0.7019 0.7114
122.0000 16.7952 14.7861 -0.0825 -0.0046 0.0347 -0.7035 0.7099
123.0000 17.3402 14.7902 -0.1224 -0.0036 0.0346 -0.7048 0.7085
124.0000 17.8872 14.7698 -0.1396 -0.0033 0.0347 -0.7065 0.7068
125.0000 18.4216 14.7623 -0.1421 0.0042 -0.0346 0.7080 -0.7054
126.0000 19.0023 14.7552 -0.1666 0.0049 -0.0349 0.7094 -0.7039
127.0000 19.5529 14.7390 -0.1675 0.0052 -0.0357 0.7107 -0.7026
128.0000 20.0996 14.6963 -0.1938 0.0053 -0.0368 0.7118 -0.7014
129.0000 20.6547 14.6744 -0.2168 0.0052 -0.0374 0.7128 -0.7004
130.0000 21.1911 14.6666 -0.2579 0.0053 -0.0372 0.7135 -0.6996
131.0000 21.7303 14.6369 -0.2885 0.0053 -0.0369 0.7144 -0.6987
132.0000 22.2896 14.6309 -0.3262 0.0049 -0.0367 0.7151 -0.6981
133.0000 22.8167 14.6076 -0.3559 0.0048 -0.0363 0.7156 -0.6975
134.0000 23.3783 14.5839 -0.3725 0.0048 -0.0367 0.7162 -0.6969
135.0000 23.9325 14.5457 -0.3952 0.0050 -0.0375 0.7170 -0.6961
136.0000 24.4784 14.5193 -0.4061 0.0052 -0.0386 0.7173 -0.6957
137.0000 25.0362 14.5014 -0.4389 0.0051 -0.0390 0.7178 -0.6951
138.0000 25.5756 14.4844 -0.4604 0.0051 -0.0391 0.7182 -0.6947
139.0000 26.1238 14.4725 -0.4927 0.0048 -0.0385 0.7182 -0.6948
140.0000 26.6748 14.4533 -0.5222 0.0044 -0.0377 0.7177 -0.6953
141.0000 27.1927 14.4265 -0.5514 0.0040 -0.0373 0.7170 -0.6960
142.0000 27.7523 14.4015 -0.5769 0.0037 -0.0376 0.7162 -0.6969
143.0000 28.3194 14.3778 -0.5985 0.0038 -0.0378 0.7150 -0.6981
144.0000 28.8677 14.3764 -0.6149 0.0043 -0.0379 0.7140 -0.6991
145.0000 29.3889 14.3641 -0.6209 0.0050 -0.0377 0.7132 -0.7000
146.0000 29.9398 14.3499 -0.6438 0.0048 -0.0377 0.7122 -0.7009
147.0000 30.4789 14.3242 -0.6758 0.0043 -0.0378 0.7111 -0.7021
148.0000 31.0160 14.3127 -0.6988 0.0041 -0.0377 0.7100 -0.7031
149.0000 31.5610 14.3164 -0.7139 0.0050 -0.0380 0.7091 -0.7040
150.0000 32.1061 14.3255 -0.7288 0.0061 -0.0382 0.7080 -0.7051
151.0000 32.6445 14.3205 -0.7498 0.0066 -0.0380 0.7069 -0.7062
152.0000 33.1770 14.3119 -0.7676 -0.0069 0.0380 -0.7057 0.7075
153.0000 33.7078 14.3014 -0.7957 -0.0067 0.0379 -0.7047 0.7084
154.0000 34.2603 14.3129 -0.8448 -0.0061 0.0371 -0.7040 0.7092
155.0000 34.8040 14.3420 -0.8928 -0.0059 0.0355 -0.7034 0.7098
156.0000 35.3202 14.3462 -0.9309 -0.0062 0.0338 -0.7025 0.7109
157.0000 35.8655 14.3518 -0.9366 -0.0063 0.0333 -0.7016 0.7118
158.0000 36.4401 14.3632 -0.9431 -0.0066 0.0331 -0.7009 0.7124
159.0000 37.0105 14.3505 -0.9518 -0.0071 0.0328 -0.7003 0.7131
160.0000 37.5810 14.3641 -0.9707 -0.0072 0.0325 -0.6996 0.7137
161.0000 38.1611 14.3826 -0.9940 -0.0073 0.0319 -0.6991 0.7143
162.0000 38.7261 14.3914 -1.0178 -0.0076 0.0314 -0.6986 0.7148
163.0000 39.3427 14.3964 -1.0517 -0.0082 0.0306 -0.6983 0.7151
164.0000 39.9322 14.4052 -1.0823 -0.0083 0.0300 -0.6983 0.7151
165.0000 40.5194 14.4072 -1.0892 -0.0089 0.0295 -0.6983 0.7151
166.0000 41.1071 14.4110 -1.1149 -0.0098 0.0287 -0.6988 0.7147
167.0000 41.7000 14.4171 -1.1322 -0.0102 0.0281 -0.6995 0.7140
168.0000 42.2906 14.4271 -1.1397 -0.0102 0.0277 -0.7004 0.7132
169.0000 42.8971 14.4382 -1.1876 -0.0109 0.0264 -0.7015 0.7121
170.0000 43.5027 14.4428 -1.2153 -0.0119 0.0252 -0.7032 0.7104
171.0000 44.1201 14.4322 -1.2343 -0.0125 0.0246 -0.7052 0.7085
172.0000 44.7404 14.4184 -1.2585 0.0133 -0.0240 0.7069 -0.7068
173.0000 45.3822 14.3728 -1.2780 0.0144 -0.0236 0.7086 -0.7051
174.0000 46.0215 14.3579 -1.2889 0.0155 -0.0240 0.7107 -0.7029
175.0000 46.6451 14.3419 -1.3102 0.0160 -0.0238 0.7129 -0.7007
176.0000 47.2564 14.3084 -1.3434 0.0159 -0.0234 0.7146 -0.6990
177.0000 47.8734 14.2604 -1.3709 0.0160 -0.0231 0.7155 -0.6980
178.0000 48.4690 14.2618 -1.4226 0.0151 -0.0271 0.7161 -0.6973
179.0000 49.1276 14.2331 -1.4440 0.0140 -0.0267 0.7166 -0.6968
180.0000 49.7725 14.1924 -1.4964 0.0127 -0.0265 0.7165 -0.6969
181.0000 50.3925 14.1593 -1.5235 0.0122 -0.0263 0.7162 -0.6973
182.0000 51.0799 14.1424 -1.5495 0.0114 -0.0267 0.7160 -0.6975
183.0000 51.7061 14.1219 -1.5873 0.0113 -0.0277 0.7154 -0.6981
184.0000 52.3559 14.0922 -1.6035 0.0107 -0.0287 0.7150 -0.6984
185.0000 53.0042 14.0780 -1.6275 0.0100 -0.0296 0.7147 -0.6987
186.0000 53.6922 14.0468 -1.6726 0.0099 -0.0291 0.7148 -0.6986
187.0000 54.3543 14.0234 -1.7086 0.0101 -0.0289 0.7149 -0.6986
188.0000 55.0137 13.9986 -1.7280 0.0098 -0.0291 0.7148 -0.6987
189.0000 55.7247 13.9702 -1.7550 0.0090 -0.0291 0.7150 -0.6984
190.0000 56.4044 13.9539 -1.7907 0.0083 -0.0288 0.7155 -0.6980
191.0000 57.1041 13.9258 -1.8096 0.0082 -0.0283 0.7160 -0.6974
192.0000 57.7846 13.9127 -1.8481 0.0079 -0.0282 0.7165 -0.6970
193.0000 58.4995 13.8902 -1.8586 0.0100 -0.0278 0.7172 -0.6962
194.0000 59.2260 13.8523 -1.8982 0.0103 -0.0286 0.7181 -0.6953
195.0000 59.9152 13.8290 -1.9086 0.0107 -0.0287 0.7186 -0.6947
196.0000 60.6263 13.7856 -1.9397 0.0098 -0.0277 0.7195 -0.6939
197.0000 61.3048 13.7532 -2.0060 0.0091 -0.0261 0.7204 -0.6930
198.0000 62.0184 13.7414 -2.0694 0.0092 -0.0247 0.7211 -0.6923
199.0000 62.7336 13.7074 -2.0447 0.0096 -0.0253 0.7216 -0.6918
200.0000 63.4656 13.6574 -2.0430 0.0102 -0.0263 0.7223 -0.6911
201.0000 64.1944 13.5962 -2.0774 0.0091 -0.0266 0.7226 -0.6907
202.0000 64.8958 13.5580 -2.1418 0.0085 -0.0248 0.7232 -0.6902
203.0000 65.5924 13.5261 -2.1634 0.0075 -0.0238 0.7231 -0.6903
204.0000 66.3442 13.4768 -2.1855 0.0075 -0.0232 0.7232 -0.6902
205.0000 67.0856 13.4217 -2.2084 0.0074 -0.0240 0.7234 -0.6900
206.0000 67.8356 13.3694 -2.2102 0.0074 -0.0263 0.7229 -0.6904
207.0000 68.5721 13.3331 -2.2355 0.0077 -0.0267 0.7227 -0.6906
208.0000 69.3251 13.3017 -2.2704 0.0075 -0.0259 0.7228 -0.6905
209.0000 70.0619 13.2623 -2.3030 0.0071 -0.0245 0.7232 -0.6902
210.0000 70.8071 13.2310 -2.3240 0.0069 -0.0229 0.7231 -0.6903
211.0000 71.5455 13.1914 -2.3416 0.0063 -0.0219 0.7233 -0.6901
212.0000 72.3101 13.1485 -2.3608 0.0061 -0.0213 0.7232 -0.6903
213.0000 73.0775 13.1051 -2.3788 0.0068 -0.0215 0.7231 -0.6904
214.0000 73.8447 13.0606 -2.3962 0.0072 -0.0226 0.7230 -0.6904
215.0000 74.6008 13.0249 -2.3902 0.0081 -0.0246 0.7228 -0.6906
216.0000 75.3718 12.9774 -2.4277 0.0084 -0.0256 0.7229 -0.6905
217.0000 76.1480 12.9296 -2.4602 0.0081 -0.0257 0.7226 -0.6908
218.0000 76.9301 12.8652 -2.4947 0.0077 -0.0257 0.7223 -0.6911
219.0000 77.6670 12.8313 -2.5149 0.0075 -0.0265 0.7224 -0.6910
220.0000 78.4367 12.7885 -2.5278 0.0068 -0.0271 0.7222 -0.6911
221.0000 79.2118 12.7388 -2.5607 0.0071 -0.0267 0.7221 -0.6912
222.0000 79.9858 12.7167 -2.6034 0.0067 -0.0258 0.7223 -0.6911
223.0000 80.7484 12.6682 -2.6145 0.0068 -0.0256 0.7221 -0.6913
224.0000 81.5359 12.6334 -2.6495 0.0066 -0.0251 0.7220 -0.6914
225.0000 82.3176 12.5950 -2.6553 0.0068 -0.0247 0.7221 -0.6913
226.0000 83.1042 12.5439 -2.6740 0.0068 -0.0245 0.7220 -0.6914
227.0000 83.8879 12.5000 -2.6987 0.0067 -0.0242 0.7220 -0.6914
228.0000 84.6797 12.4610 -2.7234 0.0064 -0.0238 0.7222 -0.6913
229.0000 85.4666 12.4202 -2.7473 0.0063 -0.0233 0.7225 -0.6910
230.0000 86.2431 12.3762 -2.7637 0.0058 -0.0233 0.7226 -0.6908
231.0000 87.0627 12.3461 -2.7922 0.0054 -0.0233 0.7229 -0.6906
232.0000 87.8684 12.3061 -2.8185 0.0051 -0.0230 0.7233 -0.6901
233.0000 88.6582 12.2722 -2.8419 0.0052 -0.0222 0.7234 -0.6901
234.0000 89.4564 12.2061 -2.8520 0.0054 -0.0217 0.7234 -0.6901
235.0000 90.2753 12.1712 -2.8699 0.0055 -0.0219 0.7238 -0.6897
236.0000 91.0718 12.1170 -2.8877 0.0058 -0.0235 0.7240 -0.6894
237.0000 91.8785 12.0825 -2.9179 0.0060 -0.0238 0.7243 -0.6891
238.0000 92.6862 12.0110 -2.9419 0.0063 -0.0242 0.7244 -0.6889
239.0000 93.5210 11.9612 -2.9666 0.0054 -0.0252 0.7244 -0.6889
240.0000 94.3533 11.9148 -2.9961 0.0048 -0.0253 0.7246 -0.6887
241.0000 95.1555 11.8486 -3.0257 0.0046 -0.0257 0.7247 -0.6886
242.0000 95.9630 11.8024 -3.0498 0.0041 -0.0253 0.7247 -0.6886
243.0000 96.7841 11.7542 -3.0672 0.0040 -0.0258 0.7250 -0.6883
244.0000 97.6307 11.6935 -3.1087 0.0042 -0.0258 0.7249 -0.6884
245.0000 98.4365 11.6604 -3.1206 0.0046 -0.0256 0.7250 -0.6883
246.0000 99.2879 11.6162 -3.1606 0.0070 -0.0236 0.7247 -0.6886
247.0000 100.1270 11.5516 -3.1986 0.0093 -0.0226 0.7245 -0.6888
248.0000 100.9766 11.5257 -3.2138 0.0103 -0.0219 0.7244 -0.6890
249.0000 101.7544 11.4736 -3.2246 0.0111 -0.0218 0.7241 -0.6892
250.0000 102.6187 11.4258 -3.2509 0.0106 -0.0208 0.7240 -0.6894
251.0000 103.4495 11.3625 -3.2860 0.0088 -0.0188 0.7239 -0.6896
252.0000 104.2540 11.3084 -3.3103 0.0064 -0.0176 0.7239 -0.6896
253.0000 105.0750 11.2315 -3.3277 0.0052 -0.0174 0.7233 -0.6903
254.0000 105.9470 11.1675 -3.3485 0.0030 -0.0204 0.7230 -0.6906
255.0000 106.8020 11.1090 -3.3616 0.0021 -0.0243 0.7225 -0.6910
256.0000 107.6247 11.0560 -3.3818 0.0014 -0.0278 0.7223 -0.6910
257.0000 108.4827 10.9937 -3.4060 0.0026 -0.0294 0.7220 -0.6912
258.0000 109.3303 10.9446 -3.4233 0.0027 -0.0310 0.7219 -0.6913
259.0000 110.1713 10.9090 -3.4689 0.0007 -0.0310 0.7218 -0.6914
260.0000 111.0115 10.8714 -3.5013 -0.0006 -0.0289 0.7222 -0.6911
261.0000 111.8494 10.8110 -3.5223 -0.0015 -0.0274 0.7220 -0.6914
262.0000 112.7307 10.7559 -3.5374 -0.0009 -0.0274 0.7218 -0.6915
263.0000 113.5385 10.7229 -3.5652 -0.0011 -0.0283 0.7220 -0.6913
264.0000 114.3942 10.6675 -3.5897 0.0008 -0.0280 0.7218 -0.6916
265.0000 115.2759 10.6357 -3.6039 0.0012 -0.0270 0.7218 -0.6915
266.0000 116.1141 10.5905 -3.6344 0.0005 -0.0270 0.7219 -0.6914
267.0000 116.9801 10.5470 -3.6496 -0.0000 -0.0263 0.7219 -0.6915
268.0000 117.8482 10.5090 -3.6621 -0.0011 -0.0259 0.7221 -0.6913
269.0000 118.7166 10.4549 -3.6753 -0.0015 -0.0257 0.7221 -0.6914
270.0000 119.5440 10.4022 -3.6947 -0.0011 -0.0252 0.7220 -0.6914
271.0000 120.3954 10.3688 -3.7255 -0.0010 -0.0248 0.7220 -0.6915
272.0000 121.2918 10.3228 -3.7496 -0.0005 -0.0252 0.7219 -0.6916
273.0000 122.1462 10.2652 -3.7491 0.0006 -0.0265 0.7214 -0.6920
274.0000 122.9836 10.2129 -3.7676 0.0007 -0.0270 0.7215 -0.6919
275.0000 123.8405 10.1661 -3.7920 -0.0006 -0.0260 0.7215 -0.6919
276.0000 124.7127 10.1369 -3.8095 -0.0014 -0.0251 0.7217 -0.6917
277.0000 125.5907 10.0806 -3.8116 -0.0002 -0.0238 0.7215 -0.6920
278.0000 126.4493 10.0373 -3.8433 -0.0002 -0.0242 0.7213 -0.6922
279.0000 127.3214 9.9965 -3.8452 0.0006 -0.0255 0.7212 -0.6923
280.0000 128.1851 9.9256 -3.8738 0.0001 -0.0268 0.7210 -0.6924
281.0000 129.0393 9.9121 -3.8777 0.0001 -0.0278 0.7213 -0.6921
282.0000 129.8986 9.8397 -3.9114 -0.0006 -0.0284 0.7209 -0.6925
283.0000 130.7633 9.7924 -3.9387 -0.0011 -0.0283 0.7205 -0.6929
284.0000 131.6038 9.7359 -3.9591 -0.0010 -0.0281 0.7203 -0.6931
285.0000 132.4748 9.6888 -3.9889 -0.0011 -0.0279 0.7202 -0.6932
286.0000 133.3213 9.6603 -3.9985 -0.0000 -0.0277 0.7205 -0.6929
287.0000 134.1802 9.6395 -4.0164 -0.0004 -0.0275 0.7210 -0.6924
288.0000 135.0211 9.6029 -4.0297 0.0002 -0.0266 0.7214 -0.6920
289.0000 135.8893 9.5622 -4.0586 0.0004 -0.0255 0.7218 -0.6916
290.0000 136.7425 9.5164 -4.0827 0.0003 -0.0254 0.7224 -0.6911
291.0000 137.6149 9.4673 -4.0887 0.0006 -0.0261 0.7226 -0.6907
292.0000 138.4348 9.4205 -4.1102 0.0007 -0.0268 0.7233 -0.6900
293.0000 139.2916 9.3460 -4.1260 0.0008 -0.0274 0.7242 -0.6891
294.0000 140.1357 9.2894 -4.1520 0.0002 -0.0270 0.7248 -0.6885
295.0000 140.9803 9.2325 -4.1830 0.0003 -0.0267 0.7253 -0.6879
296.0000 141.8387 9.1897 -4.1977 0.0016 -0.0251 0.7261 -0.6871
297.0000 142.6922 9.1407 -4.2097 0.0036 -0.0244 0.7266 -0.6866
298.0000 143.5354 9.0677 -4.2116 0.0050 -0.0246 0.7272 -0.6860
299.0000 144.3647 8.9989 -4.2400 0.0050 -0.0251 0.7282 -0.6849
300.0000 145.1620 8.9376 -4.2682 0.0047 -0.0252 0.7293 -0.6837
301.0000 145.9583 8.8776 -4.2822 0.0049 -0.0244 0.7302 -0.6827
302.0000 146.7572 8.8213 -4.3102 0.0043 -0.0240 0.7308 -0.6822
303.0000 147.5400 8.7365 -4.3231 0.0045 -0.0239 0.7315 -0.6814
304.0000 148.3393 8.6594 -4.3325 0.0046 -0.0241 0.7322 -0.6806
305.0000 149.1231 8.5816 -4.3560 0.0046 -0.0244 0.7330 -0.6797
306.0000 149.8785 8.5324 -4.3777 0.0044 -0.0234 0.7337 -0.6791
307.0000 150.6335 8.4729 -4.4172 0.0031 -0.0220 0.7341 -0.6786
308.0000 151.3698 8.4133 -4.4261 0.0029 -0.0204 0.7344 -0.6784
309.0000 152.1157 8.3454 -4.4333 0.0041 -0.0191 0.7345 -0.6783
310.0000 152.8425 8.2736 -4.4086 0.0057 -0.0199 0.7346 -0.6782
311.0000 153.5691 8.2128 -4.4138 0.0061 -0.0212 0.7344 -0.6783
312.0000 154.2554 8.1427 -4.4267 0.0057 -0.0216 0.7342 -0.6785
313.0000 154.9564 8.0864 -4.4534 0.0055 -0.0214 0.7339 -0.6789
314.0000 155.6003 8.0248 -4.4743 0.0055 -0.0209 0.7331 -0.6798
315.0000 156.2445 7.9582 -4.4657 0.0056 -0.0208 0.7322 -0.6808
316.0000 156.8695 7.9042 -4.4845 0.0053 -0.0206 0.7320 -0.6810
317.0000 157.4889 7.8542 -4.4917 0.0052 -0.0203 0.7319 -0.6811
318.0000 158.0972 7.8014 -4.4953 0.0053 -0.0204 0.7319 -0.6811
319.0000 158.7100 7.7513 -4.5108 0.0055 -0.0207 0.7320 -0.6809
320.0000 159.2911 7.7093 -4.5059 0.0053 -0.0220 0.7323 -0.6806
321.0000 159.8331 7.6614 -4.5366 0.0053 -0.0219 0.7323 -0.6806
322.0000 160.3554 7.6193 -4.5248 0.0056 -0.0221 0.7326 -0.6803
323.0000 160.8675 7.5724 -4.5448 0.0058 -0.0219 0.7329 -0.6800
324.0000 161.3456 7.5378 -4.5642 0.0056 -0.0218 0.7330 -0.6799
325.0000 161.8263 7.4763 -4.5621 0.0039 -0.0229 0.7331 -0.6797
326.0000 162.2820 7.4275 -4.5659 0.0033 -0.0232 0.7338 -0.6790
327.0000 162.7268 7.4013 -4.6077 0.0022 -0.0230 0.7343 -0.6784
328.0000 163.1698 7.3706 -4.6271 0.0022 -0.0221 0.7346 -0.6782
329.0000 163.5861 7.3299 -4.6181 0.0022 -0.0206 0.7349 -0.6778
330.0000 164.0099 7.2933 -4.6244 0.0023 -0.0205 0.7354 -0.6773
331.0000 164.4305 7.2314 -4.6090 0.0019 -0.0217 0.7352 -0.6775
332.0000 164.8479 7.1882 -4.5975 -0.0001 -0.0248 0.7351 -0.6775
333.0000 165.2579 7.1456 -4.6419 -0.0004 -0.0246 0.7353 -0.6772
334.0000 165.6600 7.1123 -4.6515 -0.0004 -0.0237 0.7356 -0.6770
335.0000 166.0359 7.0884 -4.6398 0.0006 -0.0233 0.7359 -0.6766
336.0000 166.4224 7.0533 -4.6284 0.0012 -0.0226 0.7361 -0.6765
337.0000 166.8113 7.0003 -4.6432 0.0006 -0.0220 0.7361 -0.6765
338.0000 167.1837 6.9600 -4.6620 0.0001 -0.0218 0.7362 -0.6764
339.0000 167.5860 6.9147 -4.6679 0.0001 -0.0221 0.7369 -0.6756
340.0000 167.9428 6.8815 -4.6790 0.0013 -0.0221 0.7377 -0.6748
341.0000 168.3140 6.8545 -4.6623 0.0024 -0.0219 0.7378 -0.6746
342.0000 168.6751 6.8189 -4.6761 0.0025 -0.0219 0.7384 -0.6740
343.0000 169.0386 6.7779 -4.6710 0.0031 -0.0222 0.7401 -0.6722
344.0000 169.3462 6.7447 -4.6752 0.0035 -0.0228 0.7414 -0.6706
345.0000 169.6725 6.7001 -4.6882 0.0034 -0.0226 0.7423 -0.6697
346.0000 170.0215 6.6617 -4.7039 0.0031 -0.0223 0.7434 -0.6684
347.0000 170.3529 6.6312 -4.7155 0.0034 -0.0217 0.7451 -0.6666
348.0000 170.6846 6.5930 -4.7105 0.0038 -0.0214 0.7465 -0.6650
349.0000 171.0081 6.5610 -4.7126 0.0040 -0.0213 0.7479 -0.6635
350.0000 171.3460 6.4961 -4.7131 0.0043 -0.0212 0.7495 -0.6616
351.0000 171.6784 6.4540 -4.7169 0.0045 -0.0212 0.7517 -0.6592
352.0000 172.0072 6.3922 -4.7330 0.0047 -0.0213 0.7542 -0.6563
353.0000 172.3406 6.3312 -4.7429 0.0052 -0.0214 0.7565 -0.6536
354.0000 172.6514 6.2725 -4.7465 0.0056 -0.0216 0.7589 -0.6509
355.0000 172.9723 6.2228 -4.7409 0.0062 -0.0215 0.7618 -0.6474
356.0000 173.2729 6.1731 -4.7483 0.0065 -0.0214 0.7647 -0.6439
357.0000 173.5588 6.0980 -4.7586 0.0068 -0.0211 0.7671 -0.6411
358.0000 173.8589 6.0322 -4.7775 0.0068 -0.0207 0.7699 -0.6378
359.0000 174.1468 5.9736 -4.7756 0.0070 -0.0206 0.7727 -0.6344
360.0000 174.4137 5.8995 -4.7909 0.0068 -0.0204 0.7753 -0.6312
361.0000 174.6836 5.8222 -4.7970 0.0066 -0.0202 0.7780 -0.6278
362.0000 174.9412 5.7433 -4.8103 0.0060 -0.0199 0.7807 -0.6246
363.0000 175.2024 5.6797 -4.8172 0.0057 -0.0190 0.7834 -0.6212
364.0000 175.4324 5.6138 -4.8332 0.0053 -0.0176 0.7858 -0.6181
365.0000 175.6519 5.5519 -4.8431 0.0052 -0.0165 0.7881 -0.6152
366.0000 175.9069 5.4787 -4.8541 0.0048 -0.0158 0.7907 -0.6119
367.0000 176.1271 5.4117 -4.8598 0.0049 -0.0155 0.7933 -0.6086
368.0000 176.3553 5.3459 -4.8674 0.0048 -0.0151 0.7956 -0.6056
369.0000 176.5958 5.2680 -4.8672 0.0048 -0.0145 0.7980 -0.6025
370.0000 176.8173 5.1998 -4.8620 0.0051 -0.0142 0.8005 -0.5992
371.0000 177.0535 5.1179 -4.8691 0.0050 -0.0139 0.8029 -0.5959
372.0000 177.2703 5.0195 -4.8778 0.0049 -0.0140 0.8055 -0.5924
373.0000 177.4906 4.9358 -4.8764 0.0046 -0.0141 0.8083 -0.5887
374.0000 177.7321 4.8367 -4.8904 0.0037 -0.0133 0.8113 -0.5844
375.0000 178.0007 4.7333 -4.9141 0.0036 -0.0120 0.8151 -0.5792
376.0000 178.2796 4.6215 -4.9084 0.0040 -0.0112 0.8193 -0.5733
377.0000 178.5914 4.4913 -4.8967 0.0045 -0.0109 0.8237 -0.5669
378.0000 178.9504 4.3290 -4.9036 0.0055 -0.0110 0.8287 -0.5596
379.0000 179.2877 4.1443 -4.9155 0.0089 -0.0120 0.8346 -0.5507
380.0000 179.6189 3.9693 -4.9225 0.0117 -0.0119 0.8410 -0.5408
381.0000 179.9735 3.7665 -4.9276 0.0138 -0.0120 0.8478 -0.5300
382.0000 180.3387 3.5381 -4.9363 0.0163 -0.0128 0.8550 -0.5182
383.0000 180.6844 3.3150 -4.9482 0.0165 -0.0126 0.8629 -0.5049
384.0000 181.0378 3.0620 -4.9659 0.0165 -0.0124 0.8712 -0.4904
385.0000 181.3754 2.7738 -4.9787 0.0166 -0.0131 0.8799 -0.4747
386.0000 181.7127 2.4992 -4.9755 0.0142 -0.0190 0.8886 -0.4581
387.0000 182.0284 2.1935 -5.0350 0.0145 -0.0208 0.8968 -0.4418
388.0000 182.3752 1.8813 -5.0454 0.0158 -0.0198 0.9051 -0.4244
389.0000 182.7001 1.5545 -5.0846 0.0164 -0.0184 0.9134 -0.4062
390.0000 183.0281 1.1898 -5.0725 0.0187 -0.0170 0.9214 -0.3877
391.0000 183.3490 0.8126 -5.0952 0.0198 -0.0154 0.9289 -0.3695
392.0000 183.6600 0.4205 -5.1065 0.0205 -0.0140 0.9361 -0.3508
393.0000 183.9461 -0.0099 -5.1456 0.0188 -0.0138 0.9429 -0.3323
394.0000 184.2295 -0.4636 -5.1274 0.0176 -0.0151 0.9487 -0.3153
395.0000 184.5259 -0.9469 -5.1526 0.0136 -0.0164 0.9539 -0.2994
396.0000 184.8069 -1.4312 -5.2175 0.0133 -0.0167 0.9587 -0.2837
397.0000 185.1130 -1.9136 -5.2194 0.0157 -0.0184 0.9626 -0.2700
398.0000 185.3901 -2.4349 -5.2393 0.0154 -0.0193 0.9656 -0.2589
399.0000 185.6657 -2.9894 -5.2427 0.0155 -0.0195 0.9683 -0.2486
400.0000 185.9304 -3.5614 -5.2838 0.0153 -0.0185 0.9708 -0.2385
401.0000 186.2065 -4.1110 -5.3229 0.0150 -0.0176 0.9730 -0.2297
402.0000 186.4882 -4.7186 -5.3521 0.0147 -0.0170 0.9748 -0.2220
403.0000 186.7415 -5.3584 -5.3910 0.0144 -0.0165 0.9766 -0.2139
404.0000 187.0039 -5.9812 -5.3768 0.0143 -0.0171 0.9785 -0.2050
405.0000 187.2688 -6.6058 -5.4091 0.0152 -0.0168 0.9801 -0.1974
406.0000 187.5162 -7.2355 -5.4564 0.0173 -0.0145 0.9814 -0.1909
407.0000 187.7650 -7.8953 -5.4494 0.0175 -0.0125 0.9827 -0.1837
408.0000 187.9845 -8.5409 -5.4451 0.0148 -0.0127 0.9839 -0.1776
409.0000 188.2093 -9.2219 -5.4922 0.0127 -0.0125 0.9845 -0.1743
410.0000 188.4352 -9.9041 -5.5215 0.0122 -0.0124 0.9850 -0.1719
411.0000 188.6655 -10.6215 -5.5182 0.0132 -0.0124 0.9854 -0.1694
412.0000 188.9230 -11.3268 -5.5394 0.0135 -0.0126 0.9856 -0.1681
413.0000 189.1637 -12.0503 -5.5459 0.0136 -0.0131 0.9856 -0.1680
414.0000 189.3994 -12.7984 -5.5617 0.0138 -0.0130 0.9856 -0.1681
415.0000 189.6529 -13.5397 -5.5856 0.0135 -0.0126 0.9856 -0.1679
416.0000 189.8941 -14.2758 -5.6052 0.0134 -0.0123 0.9855 -0.1685
417.0000 190.1742 -15.0329 -5.6265 0.0133 -0.0118 0.9855 -0.1689
418.0000 190.4331 -15.8437 -5.6467 0.0135 -0.0114 0.9853 -0.1698
419.0000 190.6980 -16.6221 -5.6556 0.0129 -0.0115 0.9853 -0.1700
420.0000 190.9521 -17.4413 -5.6723 0.0123 -0.0113 0.9851 -0.1710
421.0000 191.2399 -18.2516 -5.6892 0.0119 -0.0110 0.9851 -0.1713
422.0000 191.5109 -19.0527 -5.7197 0.0111 -0.0102 0.9851 -0.1715
423.0000 191.8056 -19.8824 -5.7160 0.0107 -0.0100 0.9850 -0.1721
424.0000 192.1014 -20.7212 -5.7104 0.0102 -0.0101 0.9849 -0.1724
425.0000 192.3702 -21.5648 -5.7231 0.0099 -0.0103 0.9848 -0.1731
426.0000 192.6661 -22.4076 -5.7284 0.0085 -0.0113 0.9848 -0.1734
427.0000 192.9619 -23.2618 -5.7454 0.0072 -0.0122 0.9846 -0.1740
428.0000 193.2393 -24.1274 -5.7582 0.0063 -0.0135 0.9845 -0.1750
429.0000 193.5408 -24.9761 -5.7755 0.0055 -0.0139 0.9844 -0.1752
430.0000 193.8432 -25.8205 -5.7946 0.0044 -0.0144 0.9844 -0.1755
431.0000 194.1477 -26.6592 -5.8174 0.0030 -0.0147 0.9842 -0.1762
432.0000 194.4271 -27.4918 -5.8398 0.0012 -0.0153 0.9842 -0.1765
433.0000 194.7130 -28.3516 -5.8501 0.0007 -0.0154 0.9840 -0.1772
434.0000 195.0275 -29.2095 -5.8700 -0.0006 -0.0164 0.9839 -0.1778
435.0000 195.3287 -30.0924 -5.8916 -0.0018 -0.0176 0.9837 -0.1787
436.0000 195.6364 -30.9174 -5.9081 -0.0036 -0.0189 0.9835 -0.1797
437.0000 195.9569 -31.7658 -5.9550 -0.0034 -0.0187 0.9833 -0.1809
438.0000 196.2731 -32.6432 -5.9494 -0.0039 -0.0198 0.9830 -0.1827
439.0000 196.5744 -33.5081 -5.9931 -0.0053 -0.0244 0.9825 -0.1848
440.0000 196.9102 -34.3983 -6.0148 -0.0052 -0.0250 0.9822 -0.1860
441.0000 197.2502 -35.2552 -6.0426 -0.0050 -0.0240 0.9821 -0.1869
442.0000 197.5765 -36.0977 -6.0841 -0.0045 -0.0237 0.9819 -0.1878
443.0000 197.9097 -36.9835 -6.1162 -0.0043 -0.0274 0.9815 -0.1896
444.0000 198.2418 -37.8322 -6.1509 -0.0038 -0.0300 0.9812 -0.1904
445.0000 198.5731 -38.6814 -6.2076 -0.0041 -0.0302 0.9811 -0.1910
446.0000 198.9114 -39.5219 -6.2486 -0.0037 -0.0291 0.9810 -0.1917
447.0000 199.2415 -40.3468 -6.2739 -0.0037 -0.0286 0.9809 -0.1923
448.0000 199.5562 -41.1700 -6.3181 -0.0032 -0.0272 0.9808 -0.1928
449.0000 199.8818 -41.9915 -6.3447 -0.0034 -0.0255 0.9807 -0.1936
450.0000 200.2036 -42.8012 -6.3873 -0.0031 -0.0235 0.9806 -0.1944
451.0000 200.5299 -43.6131 -6.4038 -0.0029 -0.0231 0.9804 -0.1956
452.0000 200.8514 -44.4141 -6.4114 -0.0023 -0.0254 0.9800 -0.1971
453.0000 201.1891 -45.2109 -6.4504 -0.0010 -0.0279 0.9797 -0.1985
454.0000 201.5130 -46.0048 -6.4998 0.0008 -0.0290 0.9794 -0.1999
455.0000 201.8558 -46.7973 -6.5112 0.0024 -0.0279 0.9792 -0.2011
456.0000 202.1867 -47.5661 -6.5331 0.0036 -0.0265 0.9789 -0.2024
457.0000 202.5013 -48.3087 -6.5793 0.0043 -0.0265 0.9788 -0.2031
458.0000 202.8229 -49.0550 -6.5839 0.0054 -0.0271 0.9786 -0.2037
459.0000 203.1592 -49.8352 -6.6105 0.0053 -0.0291 0.9783 -0.2049
460.0000 203.4685 -50.5858 -6.6499 0.0057 -0.0309 0.9781 -0.2058
461.0000 203.7896 -51.3515 -6.6810 0.0056 -0.0318 0.9780 -0.2060
462.0000 204.1026 -52.0666 -6.7076 0.0048 -0.0331 0.9780 -0.2061
463.0000 204.4064 -52.8111 -6.7548 0.0045 -0.0329 0.9779 -0.2065
464.0000 204.7163 -53.5331 -6.7868 0.0040 -0.0331 0.9778 -0.2068
465.0000 205.0126 -54.2518 -6.8302 0.0039 -0.0339 0.9778 -0.2067
466.0000 205.3127 -54.9734 -6.8715 0.0036 -0.0347 0.9778 -0.2068
467.0000 205.6422 -55.6959 -6.9153 0.0037 -0.0350 0.9777 -0.2069
468.0000 205.9406 -56.3872 -6.9666 0.0036 -0.0350 0.9777 -0.2069
469.0000 206.2538 -57.1097 -7.0033 0.0041 -0.0351 0.9776 -0.2073
470.0000 206.5354 -57.7974 -7.0237 0.0041 -0.0355 0.9776 -0.2073
471.0000 206.8354 -58.4954 -7.0524 0.0043 -0.0356 0.9776 -0.2075
472.0000 207.1238 -59.1869 -7.0740 0.0045 -0.0357 0.9776 -0.2076
473.0000 207.4292 -59.8731 -7.1186 0.0046 -0.0353 0.9776 -0.2076
474.0000 207.7221 -60.5507 -7.1515 0.0047 -0.0350 0.9775 -0.2078
475.0000 208.0170 -61.2331 -7.2046 0.0044 -0.0345 0.9775 -0.2081
476.0000 208.3102 -61.9111 -7.2501 0.0043 -0.0340 0.9775 -0.2083
477.0000 208.6068 -62.5702 -7.2796 0.0048 -0.0336 0.9774 -0.2084
478.0000 208.8814 -63.2389 -7.3036 0.0049 -0.0335 0.9774 -0.2089
479.0000 209.1730 -63.9051 -7.3533 0.0052 -0.0329 0.9774 -0.2089
480.0000 209.4608 -64.5689 -7.3948 0.0052 -0.0326 0.9773 -0.2092
481.0000 209.7509 -65.2135 -7.4219 0.0056 -0.0326 0.9773 -0.2094
482.0000 210.0416 -65.8717 -7.4621 0.0059 -0.0325 0.9772 -0.2097
483.0000 210.3158 -66.5116 -7.4895 0.0059 -0.0327 0.9772 -0.2099
484.0000 210.5932 -67.1626 -7.5227 0.0061 -0.0324 0.9771 -0.2102
485.0000 210.8764 -67.7779 -7.5765 0.0062 -0.0317 0.9771 -0.2105
486.0000 211.1480 -68.4377 -7.5944 0.0064 -0.0317 0.9770 -0.2110
487.0000 211.4345 -69.0735 -7.6219 0.0065 -0.0325 0.9769 -0.2112
488.0000 211.7307 -69.7130 -7.6501 0.0071 -0.0341 0.9767 -0.2118
489.0000 212.0120 -70.3467 -7.6890 0.0081 -0.0360 0.9765 -0.2122
490.0000 212.2774 -70.9328 -7.7554 0.0087 -0.0359 0.9765 -0.2124
491.0000 212.5312 -71.5389 -7.7845 0.0090 -0.0353 0.9765 -0.2126
492.0000 212.7977 -72.1352 -7.8146 0.0091 -0.0348 0.9764 -0.2129
493.0000 213.0727 -72.7187 -7.8417 0.0098 -0.0346 0.9764 -0.2131
494.0000 213.3385 -73.3083 -7.8829 0.0106 -0.0343 0.9763 -0.2136
495.0000 213.5822 -73.8732 -7.9134 0.0107 -0.0338 0.9761 -0.2143
496.0000 213.8483 -74.4339 -7.9508 0.0108 -0.0337 0.9759 -0.2151
497.0000 214.1063 -75.0050 -7.9785 0.0114 -0.0333 0.9757 -0.2160
498.0000 214.3436 -75.5441 -8.0349 0.0111 -0.0325 0.9756 -0.2168
499.0000 214.6150 -76.1041 -8.0640 0.0116 -0.0315 0.9755 -0.2175
500.0000 214.8613 -76.6177 -8.0687 0.0140 -0.0311 0.9753 -0.2185
